<?xml version="1.0" encoding="utf-8"?>
<!-- Generator: Adobe Illustrator 22.0.0, SVG Export Plug-In . SVG Version: 6.00 Build 0)  -->
<svg version="1.1" id="Layer_1" xmlns="http://www.w3.org/2000/svg" xmlns:xlink="http://www.w3.org/1999/xlink" x="0px" y="0px"
	 viewBox="0 0 552.8 118.7" style="enable-background:new 0 0 552.8 118.7;" xml:space="preserve">
<g>
	<polygon points="21.7,1.6 0,1.6 5.1,21.4 26.6,21.4 	"/>
	<rect x="97.7" y="1.6" width="22.1" height="115.5"/>
	<polygon points="197.4,70.1 197.1,70.1 166.4,1.6 142.2,1.6 142.2,117.1 162.4,117.1 162.4,42.6 162.7,42.6 196.5,117.1 
		217.6,117.1 217.6,1.6 197.4,1.6 	"/>
	<polygon points="305.6,1.6 232,1.6 232,21.1 257.7,21.1 257.7,117.1 279.8,117.1 279.8,21.1 305.6,21.1 	"/>
	<path d="M333.6,1.6L305,117.1h21.2l6.2-24.3H363l5.6,24.3h21.1L361.9,1.6H333.6L333.6,1.6z M336.5,73.3l10.9-46.7h0.3l10.7,46.7
		H336.5L336.5,73.3z"/>
	<path d="M436.3,19.5c8,0,13.4,4.8,13.4,19.7h22.1C471,13,458.9,0,436.3,0c-21.4,0-36.5,10.2-36.5,38.7V80c0,28.5,15,38.7,36.5,38.7
		c8.3,0,14.7-4.5,20.6-11.2l3.4,9.6h11.5V57.9h-37.6v18.2h15.5v7c0,9.9-5.1,16-13.4,16c-8.8,0-14.4-3.5-14.4-16.3v-47
		C421.9,23,427.5,19.5,436.3,19.5z"/>
	<polygon points="512.8,97.6 512.8,67.2 542.1,67.2 542.1,47.7 512.8,47.7 512.8,21.1 551.2,21.1 551.2,1.6 490.7,1.6 490.7,117.1 
		552.8,117.1 552.8,97.6 	"/>
	<polygon points="63.2,1.6 33.7,117.1 54.7,117.1 84.1,1.6 	"/>
</g>
</svg>
